EESchema Schematic File Version 2
LIBS:Rævesender-rescue
LIBS:power
LIBS:device
LIBS:transistors
LIBS:conn
LIBS:linear
LIBS:regul
LIBS:74xx
LIBS:cmos4000
LIBS:adc-dac
LIBS:memory
LIBS:xilinx
LIBS:microcontrollers
LIBS:dsp
LIBS:microchip
LIBS:analog_switches
LIBS:motorola
LIBS:texas
LIBS:intel
LIBS:audio
LIBS:interface
LIBS:digital-audio
LIBS:philips
LIBS:display
LIBS:cypress
LIBS:siliconi
LIBS:opto
LIBS:atmel
LIBS:contrib
LIBS:valves
LIBS:Rævesender-cache
EELAYER 25 0
EELAYER END
$Descr A4 11693 8268
encoding utf-8
Sheet 1 1
Title "Rævesaks 2015"
Date "29 mar 2016"
Rev "A1"
Comp "OZ4ROS"
Comment1 "Lavet af OZ1IVA"
Comment2 "Tegnet af OZ6PMB"
Comment3 ""
Comment4 ""
$EndDescr
$Comp
L CONN_3 K1
U 1 1 56E84A0B
P 1500 1450
F 0 "K1" V 1450 1450 50  0000 C CNN
F 1 "CONN_3" V 1550 1450 40  0000 C CNN
F 2 "PIN_ARRAY_3X1" H 1500 1450 60  0001 C CNN
F 3 "" H 1500 1450 60  0000 C CNN
	1    1500 1450
	-1   0    0    1   
$EndComp
Text Notes 1150 1200 0    60   ~ 0
Antenneforbindelse\n1 Loop\n2 Gnd\n3 Sense
$Comp
L INDUCTOR_SMALL L1
U 1 1 56E84A6A
P 2300 1350
F 0 "L1" H 2300 1450 50  0000 C CNN
F 1 "47uH" H 2300 1300 50  0000 C CNN
F 2 "2PIN_6mm" H 2300 1350 60  0001 C CNN
F 3 "~" H 2300 1350 60  0000 C CNN
	1    2300 1350
	1    0    0    -1  
$EndComp
$Comp
L R-RESCUE-Rævesender R4
U 1 1 56E84A8A
P 2300 1550
F 0 "R4" V 2380 1550 40  0000 C CNN
F 1 "10k" V 2307 1551 40  0000 C CNN
F 2 "R4" V 2230 1550 30  0000 C CNN
F 3 "~" H 2300 1550 30  0000 C CNN
	1    2300 1550
	0    -1   -1   0   
$EndComp
$Comp
L GND-RESCUE-Rævesender #PWR01
U 1 1 56E84AAF
P 1950 1700
F 0 "#PWR01" H 1950 1700 30  0001 C CNN
F 1 "GND" H 1950 1630 30  0001 C CNN
F 2 "" H 1950 1700 60  0000 C CNN
F 3 "" H 1950 1700 60  0000 C CNN
	1    1950 1700
	1    0    0    -1  
$EndComp
$Comp
L C-RESCUE-Rævesender C10
U 1 1 56E84BFA
P 3950 1800
F 0 "C10" H 3950 1900 40  0000 L CNN
F 1 "33pF" H 3956 1715 40  0000 L CNN
F 2 "C1" H 3988 1650 30  0001 C CNN
F 3 "~" H 3950 1800 60  0000 C CNN
	1    3950 1800
	1    0    0    -1  
$EndComp
$Comp
L C-RESCUE-Rævesender C11
U 1 1 56E84C09
P 3950 2300
F 0 "C11" H 3950 2400 40  0000 L CNN
F 1 "470pf" H 3956 2215 40  0000 L CNN
F 2 "C1" H 3988 2150 30  0000 C CNN
F 3 "~" H 3950 2300 60  0000 C CNN
	1    3950 2300
	1    0    0    -1  
$EndComp
$Comp
L GND-RESCUE-Rævesender #PWR02
U 1 1 56E84C62
P 3950 2550
F 0 "#PWR02" H 3950 2550 30  0001 C CNN
F 1 "GND" H 3950 2480 30  0001 C CNN
F 2 "" H 3950 2550 60  0000 C CNN
F 3 "" H 3950 2550 60  0000 C CNN
	1    3950 2550
	1    0    0    -1  
$EndComp
$Comp
L R-RESCUE-Rævesender R1
U 1 1 56E84C7E
P 1600 3550
F 0 "R1" V 1680 3550 40  0000 C CNN
F 1 "100k" V 1607 3551 40  0000 C CNN
F 2 "R4" V 1530 3550 30  0000 C CNN
F 3 "~" H 1600 3550 30  0000 C CNN
	1    1600 3550
	0    -1   -1   0   
$EndComp
$Comp
L NPN Q1
U 1 1 56E84C93
P 1850 4000
F 0 "Q1" H 1850 3850 50  0000 R CNN
F 1 "NPN" H 1850 4150 50  0000 R CNN
F 2 "TO92" H 1850 4000 60  0000 C CNN
F 3 "~" H 1850 4000 60  0000 C CNN
	1    1850 4000
	1    0    0    -1  
$EndComp
$Comp
L R-RESCUE-Rævesender R2
U 1 1 56E84CB9
P 2000 3000
F 0 "R2" V 2080 3000 40  0000 C CNN
F 1 "1k5" V 2007 3001 40  0000 C CNN
F 2 "R4" V 1930 3000 30  0000 C CNN
F 3 "~" H 2000 3000 30  0000 C CNN
	1    2000 3000
	1    0    0    -1  
$EndComp
$Comp
L C-RESCUE-Rævesender C3
U 1 1 56E84CC8
P 2600 3550
F 0 "C3" H 2600 3650 40  0000 L CNN
F 1 "120pF" H 2606 3465 40  0000 L CNN
F 2 "C1" H 2638 3400 30  0000 C CNN
F 3 "~" H 2600 3550 60  0000 C CNN
	1    2600 3550
	0    -1   -1   0   
$EndComp
$Comp
L C-RESCUE-Rævesender C4
U 1 1 56E84CE1
P 2300 4000
F 0 "C4" H 2300 4100 40  0000 L CNN
F 1 "470pF" H 2306 3915 40  0000 L CNN
F 2 "C1" H 2338 3850 30  0000 C CNN
F 3 "~" H 2300 4000 60  0000 C CNN
	1    2300 4000
	1    0    0    -1  
$EndComp
$Comp
L CTRIM-RESCUE-Rævesender C6
U 1 1 56E84CF0
P 2900 4000
F 0 "C6" H 3030 3920 50  0000 C CNN
F 1 "10-40pF" H 3100 3850 50  0000 C CNN
F 2 "CVAR3X2" H 2900 4000 60  0001 C CNN
F 3 "~" H 2900 4000 60  0000 C CNN
	1    2900 4000
	1    0    0    -1  
$EndComp
$Comp
L INDUCTOR_SMALL L2
U 1 1 56E84CFF
P 3300 4350
F 0 "L2" H 3300 4450 50  0000 C CNN
F 1 "16,5µH" H 3300 4300 50  0000 C CNN
F 2 "2PIN_6mm" H 3300 4350 60  0000 C CNN
F 3 "~" H 3300 4350 60  0000 C CNN
	1    3300 4350
	0    1    1    0   
$EndComp
$Comp
L C-RESCUE-Rævesender C9
U 1 1 56E84F5F
P 3600 3550
F 0 "C9" H 3600 3650 40  0000 L CNN
F 1 "150pF" H 3606 3465 40  0000 L CNN
F 2 "C1" H 3638 3400 30  0000 C CNN
F 3 "~" H 3600 3550 60  0000 C CNN
	1    3600 3550
	0    -1   -1   0   
$EndComp
$Comp
L R-RESCUE-Rævesender R7
U 1 1 56E84F90
P 3850 4450
F 0 "R7" V 3930 4450 40  0000 C CNN
F 1 "15k" V 3857 4451 40  0000 C CNN
F 2 "R4" V 3780 4450 30  0000 C CNN
F 3 "~" H 3850 4450 30  0000 C CNN
	1    3850 4450
	1    0    0    -1  
$EndComp
$Comp
L C-RESCUE-Rævesender C2
U 1 1 56E85024
P 1400 2900
F 0 "C2" H 1400 3000 40  0000 L CNN
F 1 "100pF" H 1406 2815 40  0000 L CNN
F 2 "C1" H 1438 2750 30  0000 C CNN
F 3 "~" H 1400 2900 60  0000 C CNN
	1    1400 2900
	-1   0    0    -1  
$EndComp
$Comp
L CP C1
U 1 1 56E85033
P 1650 2900
F 0 "C1" H 1700 3000 40  0000 L CNN
F 1 "100µF" H 1700 2800 40  0000 L CNN
F 2 "C1" H 1750 2750 30  0000 C CNN
F 3 "~" H 1650 2900 300 0000 C CNN
	1    1650 2900
	-1   0    0    -1  
$EndComp
$Comp
L POT-RESCUE-Rævesender RV1
U 1 1 56E85042
P 950 2150
F 0 "RV1" H 950 2050 50  0000 C CNN
F 1 "47k" H 950 2150 50  0000 C CNN
F 2 "R4" H 950 2150 60  0000 C CNN
F 3 "~" H 950 2150 60  0000 C CNN
	1    950  2150
	0    1    -1   0   
$EndComp
$Comp
L R-RESCUE-Rævesender R3
U 1 1 56E85083
P 950 2800
F 0 "R3" V 1030 2800 40  0000 C CNN
F 1 "3k3" V 957 2801 40  0000 C CNN
F 2 "R4" V 880 2800 30  0001 C CNN
F 3 "~" H 950 2800 30  0000 C CNN
	1    950  2800
	-1   0    0    -1  
$EndComp
$Comp
L +3,3V #PWR03
U 1 1 56E85092
P 950 1750
F 0 "#PWR03" H 950 1710 30  0001 C CNN
F 1 "+3,3V" H 950 1860 30  0000 C CNN
F 2 "" H 950 1750 60  0000 C CNN
F 3 "" H 950 1750 60  0000 C CNN
	1    950  1750
	-1   0    0    -1  
$EndComp
$Comp
L GND-RESCUE-Rævesender #PWR04
U 1 1 56E851F5
P 1200 3350
F 0 "#PWR04" H 1200 3350 30  0001 C CNN
F 1 "GND" H 1200 3280 30  0001 C CNN
F 2 "" H 1200 3350 60  0000 C CNN
F 3 "" H 1200 3350 60  0000 C CNN
	1    1200 3350
	-1   0    0    -1  
$EndComp
$Comp
L C-RESCUE-Rævesender C15
U 1 1 56E85204
P 4400 4400
F 0 "C15" H 4400 4500 40  0000 L CNN
F 1 "150pF" H 4406 4315 40  0000 L CNN
F 2 "C1" H 4438 4250 30  0000 C CNN
F 3 "~" H 4400 4400 60  0000 C CNN
	1    4400 4400
	1    0    0    -1  
$EndComp
$Comp
L NPN Q3
U 1 1 56E852B9
P 5000 3950
F 0 "Q3" H 5000 3800 50  0000 R CNN
F 1 "NPN" H 5000 4100 50  0000 R CNN
F 2 "TO92" H 5000 3950 60  0000 C CNN
F 3 "~" H 5000 3950 60  0000 C CNN
	1    5000 3950
	1    0    0    -1  
$EndComp
$Comp
L R-RESCUE-Rævesender R10
U 1 1 56E854A2
P 4750 3550
F 0 "R10" V 4830 3550 40  0000 C CNN
F 1 "100k" V 4757 3551 40  0000 C CNN
F 2 "R4" V 4680 3550 30  0000 C CNN
F 3 "~" H 4750 3550 30  0000 C CNN
	1    4750 3550
	0    -1   -1   0   
$EndComp
$Comp
L R-RESCUE-Rævesender R11
U 1 1 56E85584
P 5750 3000
F 0 "R11" V 5830 3000 40  0000 C CNN
F 1 "3k3" V 5757 3001 40  0000 C CNN
F 2 "R4" V 5680 3000 30  0000 C CNN
F 3 "~" H 5750 3000 30  0000 C CNN
	1    5750 3000
	-1   0    0    1   
$EndComp
$Comp
L C-RESCUE-Rævesender C17
U 1 1 56E855A9
P 5750 4550
F 0 "C17" H 5750 4650 40  0000 L CNN
F 1 "47nF" H 5756 4465 40  0000 L CNN
F 2 "C1" H 5788 4400 30  0000 C CNN
F 3 "~" H 5750 4550 60  0000 C CNN
	1    5750 4550
	1    0    0    -1  
$EndComp
$Comp
L C-RESCUE-Rævesender C18
U 1 1 56E855B8
P 6000 4150
F 0 "C18" H 6000 4250 40  0000 L CNN
F 1 "100nF" H 6006 4065 40  0000 L CNN
F 2 "C1" H 6038 4000 30  0000 C CNN
F 3 "~" H 6000 4150 60  0000 C CNN
	1    6000 4150
	0    -1   -1   0   
$EndComp
$Comp
L NPN Q4
U 1 1 56E855D1
P 6800 4150
F 0 "Q4" H 6800 4000 50  0000 R CNN
F 1 "NPN" H 6800 4300 50  0000 R CNN
F 2 "TO92" H 6800 4150 60  0000 C CNN
F 3 "~" H 6800 4150 60  0000 C CNN
	1    6800 4150
	1    0    0    -1  
$EndComp
$Comp
L R-RESCUE-Rævesender R12
U 1 1 56E855E0
P 6600 3900
F 0 "R12" V 6680 3900 40  0000 C CNN
F 1 "100k" V 6607 3901 40  0000 C CNN
F 2 "R4" V 6530 3900 30  0000 C CNN
F 3 "~" H 6600 3900 30  0000 C CNN
	1    6600 3900
	0    -1   -1   0   
$EndComp
$Comp
L R-RESCUE-Rævesender R13
U 1 1 56E855EF
P 6900 3550
F 0 "R13" V 6980 3550 40  0000 C CNN
F 1 "3k3" V 6907 3551 40  0000 C CNN
F 2 "R4" V 6830 3550 30  0000 C CNN
F 3 "~" H 6900 3550 30  0000 C CNN
	1    6900 3550
	1    0    0    -1  
$EndComp
$Comp
L C-RESCUE-Rævesender C21
U 1 1 56E858A0
P 7750 3400
F 0 "C21" H 7750 3500 40  0000 L CNN
F 1 "47pF" H 7756 3315 40  0000 L CNN
F 2 "C1" H 7788 3250 30  0000 C CNN
F 3 "~" H 7750 3400 60  0000 C CNN
	1    7750 3400
	1    0    0    -1  
$EndComp
$Comp
L CP C22
U 1 1 56E858AF
P 8150 3400
F 0 "C22" H 8200 3500 40  0000 L CNN
F 1 "100µF" H 8200 3300 40  0000 L CNN
F 2 "C1" H 8250 3250 30  0000 C CNN
F 3 "~" H 8150 3400 300 0000 C CNN
	1    8150 3400
	1    0    0    -1  
$EndComp
$Comp
L R-RESCUE-Rævesender R16
U 1 1 56E858BE
P 8700 3450
F 0 "R16" V 8780 3450 40  0000 C CNN
F 1 "1k" V 8707 3451 40  0000 C CNN
F 2 "R4" V 8630 3450 30  0000 C CNN
F 3 "~" H 8700 3450 30  0000 C CNN
	1    8700 3450
	1    0    0    -1  
$EndComp
$Comp
L C-RESCUE-Rævesender C20
U 1 1 56E858CD
P 7500 3850
F 0 "C20" H 7500 3950 40  0000 L CNN
F 1 "100nF" H 7506 3765 40  0000 L CNN
F 2 "C1" H 7538 3700 30  0000 C CNN
F 3 "~" H 7500 3850 60  0000 C CNN
	1    7500 3850
	0    -1   -1   0   
$EndComp
$Comp
L C-RESCUE-Rævesender C19
U 1 1 56E858E1
P 7150 4200
F 0 "C19" H 7150 4300 40  0000 L CNN
F 1 "47nF" H 7156 4115 40  0000 L CNN
F 2 "C1" H 7188 4050 30  0000 C CNN
F 3 "~" H 7150 4200 60  0000 C CNN
	1    7150 4200
	1    0    0    -1  
$EndComp
$Comp
L R-RESCUE-Rævesender R14
U 1 1 56E858F0
P 8350 4000
F 0 "R14" V 8430 4000 40  0000 C CNN
F 1 "47k" V 8357 4001 40  0000 C CNN
F 2 "R4" V 8280 4000 30  0000 C CNN
F 3 "~" H 8350 4000 30  0000 C CNN
	1    8350 4000
	1    0    0    -1  
$EndComp
$Comp
L R-RESCUE-Rævesender R15
U 1 1 56E858FF
P 8350 4650
F 0 "R15" V 8430 4650 40  0000 C CNN
F 1 "47k" V 8357 4651 40  0000 C CNN
F 2 "R4" V 8280 4650 30  0000 C CNN
F 3 "~" H 8350 4650 30  0000 C CNN
	1    8350 4650
	1    0    0    -1  
$EndComp
$Comp
L NPN Q5
U 1 1 56E8590E
P 8600 4300
F 0 "Q5" H 8600 4150 50  0000 R CNN
F 1 "NPN" H 8600 4450 50  0000 R CNN
F 2 "TO92" H 8600 4300 60  0000 C CNN
F 3 "~" H 8600 4300 60  0000 C CNN
	1    8600 4300
	1    0    0    -1  
$EndComp
$Comp
L JACK_2P J1
U 1 1 56E85EF2
P 10300 6050
F 0 "J1" H 9950 5850 60  0000 C CNN
F 1 "JACK_2P" H 10150 6300 60  0000 C CNN
F 2 "JACK_ALIM" H 10300 6050 60  0000 C CNN
F 3 "~" H 10300 6050 60  0000 C CNN
	1    10300 6050
	-1   0    0    1   
$EndComp
$Comp
L +3,3V #PWR05
U 1 1 56E861DF
P 4200 5200
F 0 "#PWR05" H 4200 5160 30  0001 C CNN
F 1 "+3,3V" H 4200 5310 30  0000 C CNN
F 2 "" H 4200 5200 60  0000 C CNN
F 3 "" H 4200 5200 60  0000 C CNN
	1    4200 5200
	1    0    0    -1  
$EndComp
$Comp
L R-RESCUE-Rævesender R5
U 1 1 56E861EE
P 4200 5700
F 0 "R5" V 4280 5700 40  0000 C CNN
F 1 "22k" V 4207 5701 40  0000 C CNN
F 2 "R4" V 4130 5700 30  0000 C CNN
F 3 "~" H 4200 5700 30  0000 C CNN
	1    4200 5700
	1    0    0    -1  
$EndComp
$Comp
L R-RESCUE-Rævesender R6
U 1 1 56E86207
P 4200 6600
F 0 "R6" V 4280 6600 40  0000 C CNN
F 1 "22k" V 4207 6601 40  0000 C CNN
F 2 "R4" V 4130 6600 30  0000 C CNN
F 3 "~" H 4200 6600 30  0000 C CNN
	1    4200 6600
	1    0    0    -1  
$EndComp
$Comp
L CRYSTAL X1
U 1 1 56E86216
P 3800 6350
F 0 "X1" H 3800 6500 60  0000 C CNN
F 1 "3,579MHz" H 3800 6200 60  0000 C CNN
F 2 "HC-49V" H 3800 6350 60  0000 C CNN
F 3 "~" H 3800 6350 60  0000 C CNN
	1    3800 6350
	0    -1   -1   0   
$EndComp
$Comp
L CTRIM-RESCUE-Rævesender C5
U 1 1 56E86225
P 3800 7000
F 0 "C5" H 3930 6920 50  0000 C CNN
F 1 "5-65pF" H 3950 6840 50  0000 C CNN
F 2 "CVAR3X2" H 3800 7000 60  0001 C CNN
F 3 "~" H 3800 7000 60  0000 C CNN
	1    3800 7000
	1    0    0    -1  
$EndComp
$Comp
L C-RESCUE-Rævesender C7
U 1 1 56E86234
P 4650 6400
F 0 "C7" H 4650 6500 40  0000 L CNN
F 1 "100pF" H 4656 6315 40  0000 L CNN
F 2 "C1" H 4688 6250 30  0000 C CNN
F 3 "~" H 4650 6400 60  0000 C CNN
	1    4650 6400
	1    0    0    -1  
$EndComp
$Comp
L C-RESCUE-Rævesender C8
U 1 1 56E86243
P 4650 7000
F 0 "C8" H 4650 7100 40  0000 L CNN
F 1 "100pF" H 4656 6915 40  0000 L CNN
F 2 "C1" H 4688 6850 30  0000 C CNN
F 3 "~" H 4650 7000 60  0000 C CNN
	1    4650 7000
	1    0    0    -1  
$EndComp
$Comp
L R-RESCUE-Rævesender R9
U 1 1 56E86252
P 5050 7000
F 0 "R9" V 5130 7000 40  0000 C CNN
F 1 "1k" V 5057 7001 40  0000 C CNN
F 2 "R4" V 4980 7000 30  0000 C CNN
F 3 "~" H 5050 7000 30  0000 C CNN
	1    5050 7000
	1    0    0    -1  
$EndComp
$Comp
L R-RESCUE-Rævesender R8
U 1 1 56E8627F
P 5050 5550
F 0 "R8" V 5130 5550 40  0000 C CNN
F 1 "100" V 5057 5551 40  0000 C CNN
F 2 "R4" V 4980 5550 30  0000 C CNN
F 3 "~" H 5050 5550 30  0000 C CNN
	1    5050 5550
	1    0    0    -1  
$EndComp
$Comp
L NPN Q2
U 1 1 56E8628E
P 4950 6200
F 0 "Q2" H 4950 6050 50  0000 R CNN
F 1 "NPN" H 4950 6350 50  0000 R CNN
F 2 "TO92" H 4950 6200 60  0000 C CNN
F 3 "~" H 4950 6200 60  0000 C CNN
	1    4950 6200
	1    0    0    -1  
$EndComp
$Comp
L C-RESCUE-Rævesender C13
U 1 1 56E8629D
P 5250 6050
F 0 "C13" H 5250 6150 40  0000 L CNN
F 1 "100nF" H 5256 5965 40  0000 L CNN
F 2 "C1" H 5288 5900 30  0000 C CNN
F 3 "~" H 5250 6050 60  0000 C CNN
	1    5250 6050
	1    0    0    -1  
$EndComp
$Comp
L C-RESCUE-Rævesender C16
U 1 1 56E862AC
P 5500 6500
F 0 "C16" H 5500 6600 40  0000 L CNN
F 1 "100pF" H 5506 6415 40  0000 L CNN
F 2 "C1" H 5538 6350 30  0000 C CNN
F 3 "~" H 5500 6500 60  0000 C CNN
	1    5500 6500
	0    -1   -1   0   
$EndComp
$Comp
L GND-RESCUE-Rævesender #PWR06
U 1 1 56E86907
P 5250 6350
F 0 "#PWR06" H 5250 6350 30  0001 C CNN
F 1 "GND" H 5250 6280 30  0001 C CNN
F 2 "" H 5250 6350 60  0000 C CNN
F 3 "" H 5250 6350 60  0000 C CNN
	1    5250 6350
	1    0    0    -1  
$EndComp
$Comp
L GND-RESCUE-Rævesender #PWR07
U 1 1 56E86916
P 3800 7350
F 0 "#PWR07" H 3800 7350 30  0001 C CNN
F 1 "GND" H 3800 7280 30  0001 C CNN
F 2 "" H 3800 7350 60  0000 C CNN
F 3 "" H 3800 7350 60  0000 C CNN
	1    3800 7350
	1    0    0    -1  
$EndComp
$Comp
L CTRIM-RESCUE-Rævesender C14
U 1 1 56E86BD1
P 4250 1800
F 0 "C14" H 4380 1720 50  0000 C CNN
F 1 "10-40pF" H 4500 1650 50  0000 C CNN
F 2 "CVAR3X2" H 4250 1800 60  0001 C CNN
F 3 "~" H 4250 1800 60  0000 C CNN
	1    4250 1800
	1    0    0    -1  
$EndComp
$Comp
L GND-RESCUE-Rævesender #PWR08
U 1 1 56E8715B
P 7950 3800
F 0 "#PWR08" H 7950 3800 30  0001 C CNN
F 1 "GND" H 7950 3730 30  0001 C CNN
F 2 "" H 7950 3800 60  0000 C CNN
F 3 "" H 7950 3800 60  0000 C CNN
	1    7950 3800
	1    0    0    -1  
$EndComp
Text Notes 7750 4150 0    60   ~ 0
100k? -->
$Comp
L CONN_2 P1
U 1 1 56E87386
P 2650 7100
F 0 "P1" V 2600 7100 40  0000 C CNN
F 1 "CONN_2" V 2700 7100 40  0000 C CNN
F 2 "bornier2" H 2650 7100 60  0000 C CNN
F 3 "" H 2650 7100 60  0000 C CNN
	1    2650 7100
	-1   0    0    1   
$EndComp
$Comp
L +3,3V #PWR09
U 1 1 56E8739F
P 3100 6900
F 0 "#PWR09" H 3100 6860 30  0001 C CNN
F 1 "+3,3V" H 3100 7010 30  0000 C CNN
F 2 "" H 3100 6900 60  0000 C CNN
F 3 "" H 3100 6900 60  0000 C CNN
	1    3100 6900
	1    0    0    -1  
$EndComp
$Comp
L GND-RESCUE-Rævesender #PWR010
U 1 1 56E873AE
P 3100 7300
F 0 "#PWR010" H 3100 7300 30  0001 C CNN
F 1 "GND" H 3100 7230 30  0001 C CNN
F 2 "" H 3100 7300 60  0000 C CNN
F 3 "" H 3100 7300 60  0000 C CNN
	1    3100 7300
	1    0    0    -1  
$EndComp
Text Notes 2200 6900 0    60   ~ 0
Strømforsyning\n1 GND\n2 VCC
$Comp
L +3,3V #PWR011
U 1 1 56E876F1
P 7000 3050
F 0 "#PWR011" H 7000 3010 30  0001 C CNN
F 1 "+3,3V" H 7000 3160 30  0000 C CNN
F 2 "" H 7000 3050 60  0000 C CNN
F 3 "" H 7000 3050 60  0000 C CNN
	1    7000 3050
	1    0    0    -1  
$EndComp
$Comp
L GND-RESCUE-Rævesender #PWR012
U 1 1 56E87700
P 6650 5150
F 0 "#PWR012" H 6650 5150 30  0001 C CNN
F 1 "GND" H 6650 5080 30  0001 C CNN
F 2 "" H 6650 5150 60  0000 C CNN
F 3 "" H 6650 5150 60  0000 C CNN
	1    6650 5150
	1    0    0    -1  
$EndComp
$Comp
L C-RESCUE-Rævesender C12
U 1 1 56E84F9F
P 4100 3550
F 0 "C12" H 4100 3650 40  0000 L CNN
F 1 "100nF" H 4106 3465 40  0000 L CNN
F 2 "C1" H 4138 3400 30  0000 C CNN
F 3 "~" H 4100 3550 60  0000 C CNN
	1    4100 3550
	0    -1   -1   0   
$EndComp
$Comp
L SPST SW1
U 1 1 56FAC4B0
P 3250 1550
F 0 "SW1" H 3250 1650 70  0000 C CNN
F 1 "SPST" H 3250 1450 70  0000 C CNN
F 2 "SW_PUSH-12mm" H 3250 1550 60  0000 C CNN
F 3 "~" H 3250 1550 60  0000 C CNN
	1    3250 1550
	1    0    0    -1  
$EndComp
Text Notes 2200 1200 0    60   ~ 0
7vdg
Text Notes 2050 1800 0    60   ~ 0
5k - 15k\nfast modstand
Text Notes 1150 800  0    60   ~ 0
1m rg213. Skærm delt på midten. \nDen ene ende og skærm(e) forbindes til stel.\nDen anden forbindes til 3 på K1.
Text Notes 3500 4450 1    60   ~ 0
5vdg
Text GLabel 4150 3900 0    60   Input ~ 0
OSC
Text GLabel 6150 6500 2    60   Output ~ 0
OSC
Text GLabel 4750 1550 2    60   Output ~ 0
ANTENNE
Text GLabel 1050 3550 0    60   Input ~ 0
ANTENNE
$Comp
L CP C23
U 1 1 592DD5C8
P 9000 3850
F 0 "C23" H 9025 3950 50  0000 L CNN
F 1 "CP" H 9025 3750 50  0000 L CNN
F 2 "" H 9038 3700 50  0001 C CNN
F 3 "" H 9000 3850 50  0001 C CNN
	1    9000 3850
	0    -1   -1   0   
$EndComp
$Comp
L R R17
U 1 1 592DD6BF
P 9400 4000
F 0 "R17" V 9480 4000 50  0000 C CNN
F 1 "R" V 9400 4000 50  0000 C CNN
F 2 "" V 9330 4000 50  0001 C CNN
F 3 "" H 9400 4000 50  0001 C CNN
	1    9400 4000
	1    0    0    -1  
$EndComp
$Comp
L R R18
U 1 1 592DD786
P 9400 4400
F 0 "R18" V 9480 4400 50  0000 C CNN
F 1 "R" V 9400 4400 50  0000 C CNN
F 2 "" V 9330 4400 50  0001 C CNN
F 3 "" H 9400 4400 50  0001 C CNN
	1    9400 4400
	1    0    0    -1  
$EndComp
$Comp
L R R19
U 1 1 592DD83D
P 9400 4800
F 0 "R19" V 9480 4800 50  0000 C CNN
F 1 "R" V 9400 4800 50  0000 C CNN
F 2 "" V 9330 4800 50  0001 C CNN
F 3 "" H 9400 4800 50  0001 C CNN
	1    9400 4800
	1    0    0    -1  
$EndComp
$Comp
L CP C24
U 1 1 592DDED9
P 9750 4400
F 0 "C24" H 9775 4500 50  0000 L CNN
F 1 "CP" H 9775 4300 50  0000 L CNN
F 2 "" H 9788 4250 50  0001 C CNN
F 3 "" H 9750 4400 50  0001 C CNN
	1    9750 4400
	1    0    0    -1  
$EndComp
Wire Wire Line
	1850 1550 2050 1550
Wire Wire Line
	1850 1350 2050 1350
Wire Wire Line
	1850 1450 1950 1450
Wire Wire Line
	1950 1450 1950 1700
Wire Wire Line
	2550 1350 4100 1350
Wire Wire Line
	3750 1550 4750 1550
Connection ~ 4250 1550
Wire Wire Line
	3950 2000 3950 2100
Wire Wire Line
	1050 3550 1350 3550
Wire Wire Line
	1200 3550 1200 4000
Wire Wire Line
	1200 4000 1650 4000
Connection ~ 1200 3550
Wire Wire Line
	1850 3550 2400 3550
Wire Wire Line
	1950 3550 1950 3800
Connection ~ 1950 3550
Wire Wire Line
	2900 3550 2900 3800
Wire Wire Line
	2900 4950 2900 4200
Connection ~ 2900 3550
Wire Wire Line
	1950 4200 1950 4950
Wire Wire Line
	3850 3550 3850 4200
Wire Wire Line
	3850 4950 3850 4700
Wire Wire Line
	1650 2550 1650 2700
Wire Wire Line
	1650 3200 1650 3100
Wire Wire Line
	950  3200 1650 3200
Connection ~ 1400 3200
Connection ~ 3850 4950
Connection ~ 4400 4950
Wire Wire Line
	5100 4950 5100 4150
Connection ~ 5750 4150
Wire Wire Line
	5750 4950 5750 4750
Wire Wire Line
	6200 4150 6600 4150
Wire Wire Line
	6900 3800 6900 3950
Connection ~ 7150 3850
Connection ~ 7750 3200
Connection ~ 8150 3200
Wire Wire Line
	7150 4950 7150 4400
Wire Wire Line
	8350 4950 8350 4900
Wire Wire Line
	8350 4250 8350 4400
Wire Wire Line
	7700 3850 7700 4350
Wire Wire Line
	8350 3750 8700 3750
Wire Wire Line
	8700 3700 8700 4100
Wire Wire Line
	8700 4950 8700 4500
Connection ~ 8350 4950
Connection ~ 8700 3200
Wire Wire Line
	8850 3850 8700 3850
Connection ~ 8700 3850
Wire Wire Line
	3800 6800 3800 6650
Wire Wire Line
	3800 6050 4200 6050
Wire Wire Line
	4200 5950 4200 6350
Connection ~ 4200 6050
Wire Wire Line
	4200 5200 4200 5450
Wire Wire Line
	5050 5800 5050 6000
Wire Wire Line
	4200 6200 4750 6200
Connection ~ 4200 6200
Connection ~ 4650 6200
Wire Wire Line
	4650 6600 4650 6800
Wire Wire Line
	5050 6400 5050 6750
Wire Wire Line
	5300 6500 5050 6500
Connection ~ 5050 6500
Wire Wire Line
	5250 6250 5250 6350
Wire Wire Line
	3800 7200 3800 7350
Wire Wire Line
	3800 7250 5050 7250
Wire Wire Line
	4650 7250 4650 7200
Connection ~ 3800 7250
Connection ~ 4650 7250
Wire Wire Line
	5700 6500 6150 6500
Wire Wire Line
	4200 6850 4200 7250
Connection ~ 4200 7250
Wire Wire Line
	6900 3200 6900 3300
Connection ~ 6900 3200
Connection ~ 7150 4950
Connection ~ 6900 4950
Wire Wire Line
	8150 3700 8150 3600
Wire Wire Line
	7750 3700 8150 3700
Wire Wire Line
	7750 3700 7750 3600
Wire Wire Line
	7950 3700 7950 3800
Connection ~ 7950 3700
Wire Wire Line
	7150 3850 7150 4000
Wire Wire Line
	3000 7200 3100 7200
Wire Wire Line
	3100 7200 3100 7300
Wire Wire Line
	3000 7000 3100 7000
Wire Wire Line
	3100 7000 3100 6900
Wire Wire Line
	5750 3250 5750 4350
Connection ~ 8700 4950
Connection ~ 2900 4950
Wire Wire Line
	2300 3550 2300 3800
Connection ~ 2300 3550
Wire Wire Line
	2300 4200 2300 4950
Connection ~ 2300 4950
Wire Wire Line
	3300 3550 3300 4100
Connection ~ 3300 3550
Wire Wire Line
	3300 4950 3300 4600
Connection ~ 3300 4950
Wire Wire Line
	2800 3550 3400 3550
Wire Wire Line
	3800 3550 3900 3550
Wire Wire Line
	4400 4950 4400 4600
Connection ~ 3850 3550
Wire Wire Line
	4300 3550 4500 3550
Connection ~ 4400 3550
Wire Wire Line
	4400 3550 4400 4200
Wire Wire Line
	5000 3550 5750 3550
Wire Wire Line
	5100 3550 5100 3750
Wire Wire Line
	2550 1550 2750 1550
Wire Wire Line
	6900 4950 6900 4350
Wire Wire Line
	6650 4950 6650 5150
Connection ~ 6650 4950
Connection ~ 8700 3750
Wire Wire Line
	7000 3050 7000 3200
Connection ~ 7000 3200
Wire Wire Line
	2000 3250 2000 3550
Connection ~ 2000 3550
Wire Wire Line
	4150 3900 4400 3900
Connection ~ 4400 3900
Wire Wire Line
	4800 3950 4400 3950
Connection ~ 4400 3950
Wire Wire Line
	8400 4300 8350 4300
Connection ~ 8350 4300
Wire Wire Line
	7700 4350 8350 4350
Connection ~ 8350 4350
Wire Wire Line
	6850 3900 6900 3900
Connection ~ 6900 3900
Wire Wire Line
	6900 3850 7300 3850
Connection ~ 6900 3850
Wire Wire Line
	5050 5300 5050 5250
Wire Wire Line
	5050 5250 4200 5250
Connection ~ 4200 5250
Wire Wire Line
	1400 3100 1400 3200
Wire Wire Line
	1200 3350 1200 3200
Connection ~ 1200 3200
Wire Wire Line
	1400 2550 3450 2550
Connection ~ 1400 2550
Wire Wire Line
	5050 5850 5250 5850
Connection ~ 5050 5850
Wire Wire Line
	4650 6700 5050 6700
Connection ~ 5050 6700
Connection ~ 4650 6700
Wire Wire Line
	4250 1600 4250 1550
Wire Wire Line
	3950 1600 3950 1550
Connection ~ 3950 1550
Wire Wire Line
	4100 1350 4100 1550
Connection ~ 4100 1550
Wire Wire Line
	4250 2000 4250 2050
Wire Wire Line
	4250 2050 3950 2050
Connection ~ 3950 2050
Wire Wire Line
	5750 4150 5800 4150
Connection ~ 5100 3550
Wire Wire Line
	6350 3900 6300 3900
Wire Wire Line
	6300 3900 6300 4150
Connection ~ 6300 4150
Wire Wire Line
	3950 2500 3950 2550
Connection ~ 5750 4950
Connection ~ 5100 4950
Wire Wire Line
	6900 3200 10700 3200
Connection ~ 5750 3550
Wire Wire Line
	2000 2750 5750 2750
Wire Wire Line
	1400 2150 1400 2700
Wire Wire Line
	3450 2550 3450 2750
Connection ~ 3450 2750
Connection ~ 1650 2550
Wire Wire Line
	950  1750 950  1900
Wire Wire Line
	950  2400 950  2550
Wire Wire Line
	950  3050 950  3200
Wire Wire Line
	1100 2150 1400 2150
Wire Wire Line
	1950 4950 10700 4950
Wire Wire Line
	9150 3850 9150 4600
Wire Wire Line
	9150 4600 9900 4600
Wire Wire Line
	9400 4550 9400 4650
Connection ~ 9400 4600
Wire Wire Line
	9400 4150 9400 4250
Wire Wire Line
	9750 4250 9750 4200
Wire Wire Line
	9750 4200 9400 4200
Connection ~ 9400 4200
Connection ~ 9400 4950
Wire Wire Line
	9750 4950 9750 4550
$Comp
L NPN Q6
U 1 1 592DE889
P 10100 4600
F 0 "Q6" H 10100 4450 50  0000 R CNN
F 1 "NPN" H 10100 4750 50  0000 R CNN
F 2 "" H 10100 4600 60  0000 C CNN
F 3 "" H 10100 4600 60  0000 C CNN
	1    10100 4600
	1    0    0    -1  
$EndComp
Wire Wire Line
	10200 4950 10200 4800
Connection ~ 9750 4950
$Comp
L D D2
U 1 1 592DED03
P 10200 4000
F 0 "D2" H 10200 4100 50  0000 C CNN
F 1 "D" H 10200 3900 50  0000 C CNN
F 2 "" H 10200 4000 50  0001 C CNN
F 3 "" H 10200 4000 50  0001 C CNN
	1    10200 4000
	0    -1   -1   0   
$EndComp
$Comp
L D D1
U 1 1 592DEDD2
P 10200 3600
F 0 "D1" H 10200 3700 50  0000 C CNN
F 1 "D" H 10200 3500 50  0000 C CNN
F 2 "" H 10200 3600 50  0001 C CNN
F 3 "" H 10200 3600 50  0001 C CNN
	1    10200 3600
	0    -1   -1   0   
$EndComp
Wire Wire Line
	9400 3800 9400 3850
Wire Wire Line
	10200 3750 10200 3850
Wire Wire Line
	10200 4150 10200 4400
$Comp
L NPN Q7
U 1 1 592DF176
P 10600 3400
F 0 "Q7" H 10600 3250 50  0000 R CNN
F 1 "NPN" H 10600 3550 50  0000 R CNN
F 2 "" H 10600 3400 60  0000 C CNN
F 3 "" H 10600 3400 60  0000 C CNN
	1    10600 3400
	1    0    0    -1  
$EndComp
$Comp
L Q_PNP_EBC Q8
U 1 1 592DF247
P 10600 4300
F 0 "Q8" H 10800 4350 50  0000 L CNN
F 1 "Q_PNP_EBC" H 10800 4250 50  0000 L CNN
F 2 "" H 10800 4400 50  0001 C CNN
F 3 "" H 10600 4300 50  0001 C CNN
	1    10600 4300
	1    0    0    -1  
$EndComp
Wire Wire Line
	10200 3450 10200 3400
Wire Wire Line
	10200 3400 10400 3400
Wire Wire Line
	9400 3800 11000 3800
Wire Wire Line
	10700 3600 10700 4100
Connection ~ 10700 3800
Wire Wire Line
	10200 4300 10400 4300
Connection ~ 10200 4300
Wire Wire Line
	10700 4950 10700 4500
Connection ~ 10200 4950
Wire Wire Line
	9850 6050 8950 6050
Wire Wire Line
	8950 6050 8950 4950
Connection ~ 8950 4950
Wire Wire Line
	9750 6200 9850 6200
Wire Wire Line
	9750 5300 9750 6200
Wire Wire Line
	9750 5950 9850 5950
$Comp
L CP C25
U 1 1 592DFBD5
P 10350 5300
F 0 "C25" H 10375 5400 50  0000 L CNN
F 1 "CP" H 10375 5200 50  0000 L CNN
F 2 "" H 10388 5150 50  0001 C CNN
F 3 "" H 10350 5300 50  0001 C CNN
	1    10350 5300
	0    1    1    0   
$EndComp
Wire Wire Line
	9750 5300 10200 5300
Connection ~ 9750 5950
Wire Wire Line
	10500 5300 11000 5300
Wire Wire Line
	11000 5300 11000 3800
$EndSCHEMATC
